{
  "project_info": {
    "project_number": "528088835635",
    "firebase_url": "https://to-do-app---papb-default-rtdb.asia-southeast1.firebasedatabase.app",
    "project_id": "to-do-app---papb",
    "storage_bucket": "to-do-app---papb.appspot.com"
  },
  "client": [
    {
      "client_info": {
        "mobilesdk_app_id": "1:528088835635:android:5535fb71731c88222aa546",
        "android_client_info": {
          "package_name": "com.example.kotlintodopractice"
        }
      },
      "oauth_client": [
        {
          "client_id": "528088835635-omn8p4qcreku14t49ih6rvr36e6gnfuj.apps.googleusercontent.com",
          "client_type": 3
        }
      ],
      "api_key": [
        {
          "current_key": "AIzaSyAycV_vEZcwT3v4xCRB456UrRdZ7UA6Ya8"
        }
      ],
      "services": {
        "appinvite_service": {
          "other_platform_oauth_client": [
            {
              "client_id": "528088835635-omn8p4qcreku14t49ih6rvr36e6gnfuj.apps.googleusercontent.com",
              "client_type": 3
            }
          ]
        }
      }
    }
  ],
  "configuration_version": "1"
}